<?xml version="1.0" encoding="UTF-8" standalone="no"?>
<svg
   xmlns:dc="http://purl.org/dc/elements/1.1/"
   xmlns:cc="http://creativecommons.org/ns#"
   xmlns:rdf="http://www.w3.org/1999/02/22-rdf-syntax-ns#"
   xmlns:svg="http://www.w3.org/2000/svg"
   xmlns="http://www.w3.org/2000/svg"
   xmlns:sodipodi="http://sodipodi.sourceforge.net/DTD/sodipodi-0.dtd"
   xmlns:inkscape="http://www.inkscape.org/namespaces/inkscape"
   version="1.1"
   x="0px"
   y="0px"
   viewBox="0.5 0.5 24 30"
   enable-background="new 0.5 0.5 24 24"
   xml:space="preserve"
   id="svg12"
   sodipodi:docname="calc.svg"
   inkscape:version="0.92.3 (2405546, 2018-03-11)"><metadata
     id="metadata18"><rdf:RDF><cc:Work
         rdf:about=""><dc:format>image/svg+xml</dc:format><dc:type
           rdf:resource="http://purl.org/dc/dcmitype/StillImage" /></cc:Work></rdf:RDF></metadata><defs
     id="defs16" /><sodipodi:namedview
     pagecolor="#ffffff"
     bordercolor="#666666"
     borderopacity="1"
     objecttolerance="10"
     gridtolerance="10"
     guidetolerance="10"
     inkscape:pageopacity="0"
     inkscape:pageshadow="2"
     inkscape:window-width="1291"
     inkscape:window-height="761"
     id="namedview14"
     showgrid="false"
     inkscape:zoom="7.8666667"
     inkscape:cx="12"
     inkscape:cy="15"
     inkscape:window-x="0"
     inkscape:window-y="0"
     inkscape:window-maximized="0"
     inkscape:current-layer="svg12" /><g
     id="g6"><path
       d="M5.5,22.5v-20h8v4c0,1.104,0.896,2,2,2h4v1h2v-3c0-0.529-0.211-1.039-0.586-1.414l-4-4C16.539,0.711,16.029,0.5,15.5,0.5   h-10c-1.104,0-2,0.896-2,2v20c0,1.104,0.896,2,2,2h14c1.104,0,2-0.896,2-2H5.5z M15.5,2.5l4,4h-4V2.5z"
       id="path2" /><path
       d="M7.5,10.5v11h17v-11H7.5z M16.5,11.5h3v1h-3V11.5z M16.5,13.5h3v1h-3V13.5z M12.5,11.5h3v1h-3V11.5z M12.5,13.5h3v1h-3   V13.5z M11.5,20.5h-3v-1h3V20.5z M11.5,18.5h-3v-1h3V18.5z M11.5,16.5h-3v-1h3V16.5z M11.5,14.5h-3v-1h3V14.5z M11.5,12.5h-3v-1h3   V12.5z M23.5,20.5h-2v-4h-2v4h-1v-3h-2v3h-1v-2h-2v2h-1v-5h11V20.5z M23.5,14.5h-3v-1h3V14.5z M23.5,12.5h-3v-1h3V12.5z"
       id="path4" /></g></svg>