<?xml version="1.0" encoding="UTF-8" standalone="no"?>
<svg
   xmlns:dc="http://purl.org/dc/elements/1.1/"
   xmlns:cc="http://creativecommons.org/ns#"
   xmlns:rdf="http://www.w3.org/1999/02/22-rdf-syntax-ns#"
   xmlns:svg="http://www.w3.org/2000/svg"
   xmlns="http://www.w3.org/2000/svg"
   xmlns:sodipodi="http://sodipodi.sourceforge.net/DTD/sodipodi-0.dtd"
   xmlns:inkscape="http://www.inkscape.org/namespaces/inkscape"
   data-name="Layer 1"
   viewBox="0 0 64 80"
   x="0px"
   y="0px"
   version="1.1"
   id="svg34"
   sodipodi:docname="metrics.svg"
   inkscape:version="0.92.3 (2405546, 2018-03-11)">
  <metadata
     id="metadata40">
    <rdf:RDF>
      <cc:Work
         rdf:about="">
        <dc:format>image/svg+xml</dc:format>
        <dc:type
           rdf:resource="http://purl.org/dc/dcmitype/StillImage" />
      </cc:Work>
    </rdf:RDF>
  </metadata>
  <defs
     id="defs38" />
  <sodipodi:namedview
     pagecolor="#ffffff"
     bordercolor="#666666"
     borderopacity="1"
     objecttolerance="10"
     gridtolerance="10"
     guidetolerance="10"
     inkscape:pageopacity="0"
     inkscape:pageshadow="2"
     inkscape:window-width="1562"
     inkscape:window-height="812"
     id="namedview36"
     showgrid="false"
     inkscape:zoom="2.95"
     inkscape:cx="32"
     inkscape:cy="40"
     inkscape:window-x="0"
     inkscape:window-y="0"
     inkscape:window-maximized="0"
     inkscape:current-layer="svg34" />
  <title
     id="title2">metric-analytic-analysis-statistic-data-presentation</title>
  <path
     d="M62,15a12.994,12.994,0,0,0-25.949-1h-8.1A12.994,12.994,0,1,0,14,27.949v8.1A12.994,12.994,0,1,0,27.949,50h8.1A12.994,12.994,0,1,0,50,36.051v-8.1A13.009,13.009,0,0,0,62,15ZM49,4A11,11,0,1,1,38,15,11.013,11.013,0,0,1,49,4ZM41.649,25.711c.127.088.26.167.391.25.207.132.414.262.629.383.144.08.292.154.439.229.211.108.423.213.64.309.157.069.315.133.475.2.218.086.437.167.661.242q.248.084.5.157c.227.066.457.123.688.177.171.039.342.079.515.111.239.046.482.08.726.112.171.022.34.047.513.062.059.006.116.017.175.022v8.076c-.059.005-.116.016-.175.022-.173.015-.342.04-.513.062-.244.032-.487.066-.726.112-.173.032-.344.072-.515.111-.231.054-.461.111-.688.177q-.252.074-.5.157c-.224.075-.443.156-.661.242-.16.064-.318.128-.475.2-.217.1-.429.2-.64.309-.147.075-.295.149-.439.229-.215.121-.422.251-.629.383-.131.083-.264.162-.391.25-.224.154-.438.32-.651.487-.1.078-.2.151-.3.232A13.068,13.068,0,0,0,39.008,40.7c-.081.1-.154.2-.232.3-.167.213-.333.427-.487.651-.088.127-.167.26-.25.391-.132.207-.262.414-.383.629-.08.144-.154.292-.229.439-.108.211-.213.423-.309.64-.069.157-.133.315-.2.475-.086.218-.167.437-.242.661q-.084.248-.157.5c-.066.227-.123.457-.177.688-.039.171-.079.342-.111.515-.046.239-.08.482-.112.726-.022.171-.047.34-.062.513-.006.059-.017.116-.022.175H27.962c0-.059-.016-.116-.022-.175-.015-.173-.04-.342-.062-.513-.032-.244-.066-.487-.112-.726-.032-.173-.072-.344-.111-.515-.054-.231-.111-.461-.177-.688q-.074-.252-.157-.5c-.075-.224-.156-.443-.242-.661-.064-.16-.128-.318-.2-.475-.1-.217-.2-.429-.309-.64-.075-.147-.149-.295-.229-.439-.121-.215-.251-.422-.383-.629-.083-.131-.162-.264-.25-.391-.154-.224-.32-.438-.487-.651-.078-.1-.151-.2-.232-.3A13.068,13.068,0,0,0,23.3,39.008c-.1-.081-.2-.154-.3-.232-.213-.167-.427-.333-.651-.487-.127-.088-.26-.167-.391-.25-.207-.132-.414-.262-.629-.383-.144-.08-.292-.154-.439-.229-.211-.108-.423-.213-.64-.309-.157-.069-.315-.133-.475-.2-.218-.086-.437-.167-.661-.242q-.247-.084-.5-.157c-.227-.066-.457-.123-.688-.177-.171-.039-.342-.079-.515-.111-.239-.046-.482-.08-.726-.112-.171-.022-.34-.047-.513-.062-.059-.006-.116-.017-.175-.022V27.962c.059,0,.116-.016.175-.022.173-.015.342-.04.513-.062.244-.032.487-.066.726-.112.173-.032.344-.072.515-.111.231-.054.461-.111.688-.177q.252-.074.5-.157c.224-.075.443-.156.661-.242.16-.064.318-.128.475-.2.217-.1.429-.2.64-.309.147-.075.3-.149.439-.229.215-.121.422-.251.629-.383.131-.083.264-.162.391-.25.224-.154.438-.32.651-.487.1-.078.2-.151.3-.232A13.068,13.068,0,0,0,24.992,23.3c.081-.1.154-.2.232-.3.167-.213.333-.427.487-.651.088-.127.167-.26.25-.391.132-.207.262-.414.383-.629.08-.144.154-.292.229-.439.108-.211.213-.423.309-.64.069-.157.133-.315.2-.475.086-.218.167-.437.242-.661q.084-.247.157-.5c.066-.227.123-.457.177-.688.039-.171.079-.342.111-.515.046-.239.08-.482.112-.726.022-.171.047-.34.062-.513.006-.059.017-.116.022-.175h8.076c.005.059.016.116.022.175.015.173.04.342.062.513.032.244.066.487.112.726.032.173.072.344.111.515.054.231.111.461.177.688q.074.252.157.5c.075.224.156.443.242.661.064.16.128.318.2.475.1.217.2.429.309.64.075.147.149.3.229.439.121.215.251.422.383.629.083.131.162.264.25.391.154.224.32.438.487.651.078.1.151.2.232.3A13.068,13.068,0,0,0,40.7,24.992c.1.081.2.154.3.232C41.211,25.391,41.425,25.557,41.649,25.711ZM4,15A11,11,0,1,1,15,26,11.013,11.013,0,0,1,4,15ZM15,60A11,11,0,1,1,26,49,11.013,11.013,0,0,1,15,60ZM60,49A11,11,0,1,1,49,38,11.013,11.013,0,0,1,60,49Z"
     id="path4" />
  <rect
     x="8"
     y="13"
     width="2"
     height="6"
     id="rect6" />
  <rect
     x="12"
     y="8"
     width="2"
     height="11"
     id="rect8" />
  <rect
     x="16"
     y="11"
     width="2"
     height="8"
     id="rect10" />
  <rect
     x="20"
     y="10"
     width="2"
     height="9"
     id="rect12" />
  <path
     d="M48.149,13.362,51.4,15.8a1,1,0,0,0,1.381-.175l4-5-1.562-1.25-3.4,4.243L48.6,11.2a1,1,0,0,0-1.359.15l-6,7,1.518,1.3Z"
     id="path14" />
  <path
     d="M42.5,48A1.5,1.5,0,1,0,44,49.5,1.5,1.5,0,0,0,42.5,48Zm0,2a.5.5,0,1,1,.5-.5A.5.5,0,0,1,42.5,50Z"
     id="path16" />
  <path
     d="M47.5,51A1.5,1.5,0,1,0,49,52.5,1.5,1.5,0,0,0,47.5,51Zm0,2a.5.5,0,1,1,.5-.5A.5.5,0,0,1,47.5,53Z"
     id="path18" />
  <path
     d="M48,44.5A1.5,1.5,0,1,0,46.5,46,1.5,1.5,0,0,0,48,44.5Zm-2,0a.5.5,0,1,1,.5.5A.5.5,0,0,1,46,44.5Z"
     id="path20" />
  <path
     d="M51.5,49A1.5,1.5,0,1,0,50,47.5,1.5,1.5,0,0,0,51.5,49Zm0-2a.5.5,0,1,1-.5.5A.5.5,0,0,1,51.5,47Z"
     id="path22" />
  <path
     d="M55.5,53A1.5,1.5,0,1,0,54,51.5,1.5,1.5,0,0,0,55.5,53Zm0-2a.5.5,0,1,1-.5.5A.5.5,0,0,1,55.5,51Z"
     id="path24" />
  <path
     d="M17,41a1,1,0,0,0-1,1v5a1,1,0,0,0,1,1h5a1,1,0,0,0,1-1A6.006,6.006,0,0,0,17,41Zm1,5V43.127A4.014,4.014,0,0,1,20.873,46Z"
     id="path26" />
  <path
     d="M19,49H15V45a1,1,0,0,0-1-1,6,6,0,1,0,6,6A1,1,0,0,0,19,49Zm-5,5a4,4,0,0,1-1-7.873V50a1,1,0,0,0,1,1h3.873A4.005,4.005,0,0,1,14,54Z"
     id="path28" />
</svg>
