<?xml version="1.0" encoding="UTF-8" standalone="no"?>
<svg
   xmlns:dc="http://purl.org/dc/elements/1.1/"
   xmlns:cc="http://creativecommons.org/ns#"
   xmlns:rdf="http://www.w3.org/1999/02/22-rdf-syntax-ns#"
   xmlns:svg="http://www.w3.org/2000/svg"
   xmlns="http://www.w3.org/2000/svg"
   xmlns:sodipodi="http://sodipodi.sourceforge.net/DTD/sodipodi-0.dtd"
   xmlns:inkscape="http://www.inkscape.org/namespaces/inkscape"
   viewBox="0 0 24 30"
   x="0px"
   y="0px"
   version="1.1"
   id="svg8"
   sodipodi:docname="urlshrinker.svg"
   inkscape:version="0.92.3 (2405546, 2018-03-11)">
  <metadata
     id="metadata14">
    <rdf:RDF>
      <cc:Work
         rdf:about="">
        <dc:format>image/svg+xml</dc:format>
        <dc:type
           rdf:resource="http://purl.org/dc/dcmitype/StillImage" />
      </cc:Work>
    </rdf:RDF>
  </metadata>
  <defs
     id="defs12" />
  <sodipodi:namedview
     pagecolor="#ffffff"
     bordercolor="#666666"
     borderopacity="1"
     objecttolerance="10"
     gridtolerance="10"
     guidetolerance="10"
     inkscape:pageopacity="0"
     inkscape:pageshadow="2"
     inkscape:window-width="1247"
     inkscape:window-height="767"
     id="namedview10"
     showgrid="false"
     inkscape:zoom="7.3429696"
     inkscape:cx="12"
     inkscape:cy="15"
     inkscape:window-x="0"
     inkscape:window-y="0"
     inkscape:window-maximized="0"
     inkscape:current-layer="svg8" />
  <path
     d="M526,122 L511,122 L511,120 L528,120 L528,137 L526,137 L526,122 Z M506,142 L521,142 L521,144 L504,144 L504,127 L506,127 L506,142 Z M513,127.585786 L513,124 L515,124 L515,131 L508,131 L508,129 L511.585786,129 L504.292893,121.707107 L505.707107,120.292893 L513,127.585786 Z M520.414214,135 L527.707107,142.292893 L526.292893,143.707107 L519,136.414214 L519,140 L517,140 L517,133 L524,133 L524,135 L520.414214,135 Z"
     transform="translate(-504 -120)"
     id="path2" />
</svg>
